<?xml version="0.0" ?>
<robot name="cylinder.urdf">
  <link name="baseLink">
   <inertial>
     <origin xyz="0 0 0" rpy="0 0 0"/>
     <mass value="0.00001"/>
     <inertia ixx="100"  ixy="0"  ixz="0" iyy="100" iyz="0" izz="100" />
   </inertial>

   <visual>
     <origin xyz="0 0 0" rpy="0 0 0" />
     <geometry>
       <cylinder radius="0.3" length="0.4"/>
     </geometry>
     <material name="red">
       <color rgba="1.0 0 0 0.5"/>
     </material>
   </visual>

   <collision>
     <origin xyz="0 0 0" rpy="0 0 0"/>
     <geometry>
       <cylinder radius="0.3" length="0.4"/>
     </geometry>
   </collision>
  </link>
</robot>

